Claw-ning Around with Lobster Pivots
…
81

165

#gives us a pretty baller summary of the data that would take a longass fricken time in SQL to write...

Making some pinchy Pivot Tables

Make R pivot tables like this: group_by() %>% summarize()

lobsters %>% 
  group_by(site,year) %>% 
  summarise(count_by_site_year = n())

## # A tibble: 25 x 3
## # Groups:   site [5]
##    site   year count_by_site_year
##    <chr> <dbl>              <int>
##  1 aque   2012                 38
##  2 aque   2013                 32
##  3 aque   2014                100
##  4 aque   2015                 83
##  5 aque   2016                 48
##  6 carp   2012                 78
##  7 carp   2013                 93
##  8 carp   2014                 79
##  9 carp   2015                 90
## 10 carp   2016                231
## # ... with 15 more rows
…
